<svg xmlns="http://www.w3.org/2000/svg" width="32" height="32" viewBox="0 0 32 32" fill="none">
<g clip-path="url(#clip0_1123_9799)">
<path d="M18.6673 2.66602H8.00065C6.53398 2.66602 5.33398 3.86602 5.33398 5.33268V26.666C5.33398 28.1327 6.53398 29.3327 8.00065 29.3327H24.0006C25.4673 29.3327 26.6673 28.1327 26.6673 26.666V10.666L18.6673 2.66602ZM16.0007 13.3327C17.4673 13.3327 18.6673 14.5327 18.6673 15.9993C18.6673 17.466 17.4673 18.666 16.0007 18.666C14.534 18.666 13.334 17.466 13.334 15.9993C13.334 14.5327 14.534 13.3327 16.0007 13.3327ZM21.334 23.9993H10.6673V23.2393C10.6673 22.1593 11.3073 21.1993 12.294 20.7727C13.4273 20.2793 14.6807 19.9993 16.0007 19.9993C17.3207 19.9993 18.574 20.2793 19.7073 20.7727C20.694 21.1993 21.334 22.1593 21.334 23.2393V23.9993Z" fill="white"/>
</g>
<defs>
<clipPath id="clip0_1123_9799">
<rect width="32" height="32" rx="16" fill="white"/>
</clipPath>
</defs>
</svg>
